0000.001 (0) Opened log file at time: Thu, 07 Jan 2021 06:48:07 +0000 on http://localhost/wordpress
0000.006 (0) UpdraftPlus WordPress backup plugin (https://updraftplus.com): 2.16.34.24 WP: 5.5.1 PHP: 7.3.10 (apache2handler, Windows NT DESKTOP-T2S4B8I 6.2 build 9200 (Windows 8 Home Premium Edition) AMD64) MySQL: 8.0.17 WPLANG: en_GB Server: Apache/2.4.41 (Win64) OpenSSL/1.1.1c PHP/7.3.10 safe_mode: 0 max_execution_time: 900 memory_limit: 2048M (used: 88.8M | 18M) multisite: N openssl: OpenSSL 1.1.1d  10 Sep 2019 mcrypt: N LANG:  ZipArchive::addFile: Y
0000.012 (0) Free space on disk containing Updraft's temporary directory: 91267.1 MB
0000.021 (0) Tasks: Backup files: 1 (schedule: unset) Backup DB: 1 (schedule: unset)
0000.056 (0) Requesting semaphore lock (fd) (apparently not via scheduler)
0000.076 (0) Set semaphore last lock (fd) time to 2021-01-07 06:48:07
0000.081 (0) Semaphore lock (fd) complete
0000.100 (0) Backup run: resumption=0, nonce=1c594c7830d8, file_nonce=1c594c7830d8 begun at=1610002087 (0s ago), job type=backup, label=Automatic backup before update
0000.109 (0) Scheduling a resumption (1) after 300 seconds (1610002387) in case this run gets aborted
0000.188 (0) Checking if we have a zip executable available
0000.199 (0) Creation of backups of directories: beginning
0000.220 (0) No backup of plugins: excluded by user's options
0000.225 (0) No backup of themes: excluded by user's options
0000.230 (0) No backup of uploads: excluded by user's options
0000.242 (0) Beginning creation of dump of wpcore (split every: 400 MB)
0001.236 (0) Total entities for the zip file: 193 directories, 1740 files (0 skipped as non-modified), 41.5 MB
0002.780 (0) Adding batch to zip file (UpdraftPlus_ZipArchive): over 2.0 seconds have passed since the last write (1.4 MB, 82 (82) files added so far); re-opening (prior size: 0 KB)
0003.162 (0) Zip: backup_2021-01-07-0948_Elt_Turkey_1c594c7830d8-wpcore.zip.tmp: 100 files added (on-disk size: 312.7 KB)
0004.721 (0) Zip: backup_2021-01-07-0948_Elt_Turkey_1c594c7830d8-wpcore.zip.tmp: 200 files added (on-disk size: 312.7 KB)
0005.840 (0) Adding batch to zip file (UpdraftPlus_ZipArchive): over 2.0 seconds have passed since the last write (2.5 MB, 204 (286) files added so far); re-opening (prior size: 312.7 KB)
0006.360 (0) Zip: backup_2021-01-07-0948_Elt_Turkey_1c594c7830d8-wpcore.zip.tmp: 300 files added (on-disk size: 1120 KB)
0008.774 (0) Adding batch to zip file (UpdraftPlus_ZipArchive): over 2.0 seconds have passed since the last write (1 MB, 39 (325) files added so far); re-opening (prior size: 1120 KB)
0010.894 (0) Zip: backup_2021-01-07-0948_Elt_Turkey_1c594c7830d8-wpcore.zip.tmp: 400 files added (on-disk size: 1371.1 KB)
0011.814 (0) Adding batch to zip file (UpdraftPlus_ZipArchive): over 2.0 seconds have passed since the last write (2.4 MB, 132 (457) files added so far); re-opening (prior size: 1371.1 KB)
0013.581 (0) Zip: backup_2021-01-07-0948_Elt_Turkey_1c594c7830d8-wpcore.zip.tmp: 500 files added (on-disk size: 2042.8 KB)
0014.833 (0) Adding batch to zip file (UpdraftPlus_ZipArchive): over 2.0 seconds have passed since the last write (0.3 MB, 55 (512) files added so far); re-opening (prior size: 2042.8 KB)
0017.039 (0) Zip: backup_2021-01-07-0948_Elt_Turkey_1c594c7830d8-wpcore.zip.tmp: 600 files added (on-disk size: 2152.6 KB)
0017.821 (0) Adding batch to zip file (UpdraftPlus_ZipArchive): over 2.0 seconds have passed since the last write (1.7 MB, 148 (660) files added so far); re-opening (prior size: 2152.6 KB)
0018.150 (0) Zip: backup_2021-01-07-0948_Elt_Turkey_1c594c7830d8-wpcore.zip.tmp: 700 files added (on-disk size: 2684.2 KB)
0018.937 (0) Zip: backup_2021-01-07-0948_Elt_Turkey_1c594c7830d8-wpcore.zip.tmp: 800 files added (on-disk size: 2684.2 KB)
0020.794 (0) Adding batch to zip file (UpdraftPlus_ZipArchive): over 2.0 seconds have passed since the last write (5.3 MB, 226 (886) files added so far); re-opening (prior size: 2684.2 KB)
0021.814 (0) Zip: backup_2021-01-07-0948_Elt_Turkey_1c594c7830d8-wpcore.zip.tmp: 900 files added (on-disk size: 3982.7 KB)
0022.594 (0) Zip: backup_2021-01-07-0948_Elt_Turkey_1c594c7830d8-wpcore.zip.tmp: 1000 files added (on-disk size: 3982.7 KB)
0023.852 (0) Adding batch to zip file (UpdraftPlus_ZipArchive): over 2.0 seconds have passed since the last write (5.9 MB, 153 (1039) files added so far); re-opening (prior size: 3982.7 KB)
0026.721 (0) Zip: backup_2021-01-07-0948_Elt_Turkey_1c594c7830d8-wpcore.zip.tmp: 1100 files added (on-disk size: 5440.1 KB)
0026.778 (0) Adding batch to zip file (UpdraftPlus_ZipArchive): over 2.0 seconds have passed since the last write (6.9 MB, 63 (1102) files added so far); re-opening (prior size: 5440.1 KB)
0029.530 (0) Zip: backup_2021-01-07-0948_Elt_Turkey_1c594c7830d8-wpcore.zip.tmp: 1200 files added (on-disk size: 7401.6 KB)
0029.782 (0) Adding batch to zip file (UpdraftPlus_ZipArchive): over 2.0 seconds have passed since the last write (3.4 MB, 113 (1215) files added so far); re-opening (prior size: 7401.6 KB)
0031.689 (0) Zip: backup_2021-01-07-0948_Elt_Turkey_1c594c7830d8-wpcore.zip.tmp: 1300 files added (on-disk size: 8296 KB)
0032.778 (0) Adding batch to zip file (UpdraftPlus_ZipArchive): over 2.0 seconds have passed since the last write (4.6 MB, 156 (1371) files added so far); re-opening (prior size: 8296 KB)
0033.793 (0) Zip: backup_2021-01-07-0948_Elt_Turkey_1c594c7830d8-wpcore.zip.tmp: 1400 files added (on-disk size: 9643.5 KB)
0035.017 (0) Zip: backup_2021-01-07-0948_Elt_Turkey_1c594c7830d8-wpcore.zip.tmp: 1500 files added (on-disk size: 9643.5 KB)
0035.608 (0) Zip: backup_2021-01-07-0948_Elt_Turkey_1c594c7830d8-wpcore.zip.tmp: 1600 files added (on-disk size: 9643.5 KB)
0035.780 (0) Adding batch to zip file (UpdraftPlus_ZipArchive): over 2.0 seconds have passed since the last write (4 MB, 244 (1615) files added so far); re-opening (prior size: 9643.5 KB)
0038.663 (0) Zip: backup_2021-01-07-0948_Elt_Turkey_1c594c7830d8-wpcore.zip.tmp: 1700 files added (on-disk size: 10850.9 KB)
0038.836 (0) Adding batch to zip file (UpdraftPlus_ZipArchive): over 2.0 seconds have passed since the last write (1.9 MB, 114 (1729) files added so far); re-opening (prior size: 10850.9 KB)
0040.034 (0) Created wpcore zip (0) - 11318.8 KB in 39.8 s (284.5 KB/s) (sha1: 0309e69b06b4932fd94069cf434983699df9017d, sha256: 97b6d2799a9103269fc743e3c41bc78a22170f6cd4e3cf11129c99873beab6a1)
0040.043 (0) No backup of others: excluded by user's options
0040.049 (0) No backup of more: excluded by user's options
0040.176 (0) Saving backup status to database (elements: 2)
0040.193 (0) Beginning creation of database dump (WordPress DB)
0040.199 (0) Couldn't get the sql_mode value (N;)
0040.205 (0) SQL compatibility mode successfully changed to 
0040.302 (0) Table wp_options: Total expected rows (approximate): 534
0040.534 (0) Table wp_options: Rows added in this batch (next record: 11009): 546 in 0.23 seconds
0040.626 (0) Table wp_options: finishing file(s) (2, 407.4 KB)
0040.640 (0) Table wp_users: Total expected rows (approximate): 0
0040.653 (0) Table wp_users: Rows added in this batch (next record: 1): 1 in 0.01 seconds
0040.682 (0) Table wp_users: finishing file(s) (2, 0.6 KB)
0040.695 (0) Table wp_usermeta: Total expected rows (approximate): 46
0040.706 (0) Table wp_usermeta: Rows added in this batch (next record: 64): 46 in 0.01 seconds
0040.743 (0) Table wp_usermeta: finishing file(s) (2, 2.3 KB)
0040.759 (0) Table wp_actionscheduler_actions: Total expected rows (approximate): 1
0040.774 (0) Table wp_actionscheduler_actions: Rows added in this batch (next record: 41): 4 in 0.01 seconds
0040.815 (0) Table wp_actionscheduler_actions: finishing file(s) (2, 0.8 KB)
0040.830 (0) Table wp_actionscheduler_claims: Total expected rows (approximate): 0
0040.841 (0) Table wp_actionscheduler_claims: Rows added in this batch (next record: -1): 0 in 0.01 seconds
0040.880 (0) Table wp_actionscheduler_claims: finishing file(s) (2, 0.4 KB)
0040.898 (0) Table wp_actionscheduler_groups: Total expected rows (approximate): 2
0040.911 (0) Table wp_actionscheduler_groups: Rows added in this batch (next record: 4): 4 in 0.01 seconds
0040.943 (0) Table wp_actionscheduler_groups: finishing file(s) (2, 0.4 KB)
0040.959 (0) Table wp_actionscheduler_logs: Total expected rows (approximate): 0
0040.971 (0) Table wp_actionscheduler_logs: Rows added in this batch (next record: 102): 12 in 0.01 seconds
0040.999 (0) Table wp_actionscheduler_logs: finishing file(s) (2, 0.6 KB)
0041.012 (0) Table wp_commentmeta: Total expected rows (approximate): 2
0041.024 (0) Table wp_commentmeta: Rows added in this batch (next record: 8): 2 in 0.01 seconds
0041.052 (0) Table wp_commentmeta: finishing file(s) (2, 0.4 KB)
0041.066 (0) Table wp_comments: Total expected rows (approximate): 21
0041.081 (0) Table wp_comments: Rows added in this batch (next record: 26): 21 in 0.01 seconds
0041.111 (0) Table wp_comments: finishing file(s) (2, 1.4 KB)
0041.124 (0) Table wp_links: Total expected rows (approximate): 0
0041.136 (0) Table wp_links: Rows added in this batch (next record: -1): 0 in 0.01 seconds
0041.168 (0) Table wp_links: finishing file(s) (2, 0.5 KB)
0041.185 (0) Table wp_postmeta: Total expected rows (approximate): 8369
0041.421 (0) Table wp_postmeta: Rows added in this batch (next record: 12618): 8321 in 0.23 seconds
0041.470 (0) Table wp_postmeta: finishing file(s) (2, 125.2 KB)
0041.650 (0) Table wp_posts: Total expected rows (approximate): 1748
0042.129 (0) Table wp_posts: Rows added in this batch (next record: 7027): 1408 in 0.44 seconds
0042.181 (0) Table wp_posts: finishing file(s) (2, 335.6 KB)
0042.206 (0) Table wp_term_relationships: Total expected rows (approximate): 314
0042.224 (0) Table wp_term_relationships: Rows added in this batch (next record: 104): 293 in 0.01 seconds
0042.271 (0) Table wp_term_relationships: finishing file(s) (2, 1.2 KB)
0042.296 (0) Table wp_term_taxonomy: Total expected rows (approximate): 91
0042.314 (0) Table wp_term_taxonomy: Rows added in this batch (next record: 104): 99 in 0.01 seconds
0042.367 (0) Table wp_term_taxonomy: finishing file(s) (2, 1.3 KB)
0042.400 (0) Table wp_termmeta: Total expected rows (approximate): 47
0042.426 (0) Table wp_termmeta: Rows added in this batch (next record: 61): 52 in 0.01 seconds
0042.480 (0) Table wp_termmeta: finishing file(s) (2, 0.9 KB)
0042.653 (0) Table wp_terms: Total expected rows (approximate): 90
0042.671 (0) Table wp_terms: Rows added in this batch (next record: 104): 99 in 0.01 seconds
0042.731 (0) Table wp_terms: finishing file(s) (2, 1.6 KB)
0042.764 (0) Table wp_wc_category_lookup: Total expected rows (approximate): 4
0042.783 (0) Table wp_wc_category_lookup: Rows added in this batch (next record: 96): 6 in 0.01 seconds
0042.848 (0) Table wp_wc_category_lookup: finishing file(s) (2, 0.4 KB)
0042.887 (0) Table wp_wc_product_meta_lookup: Total expected rows (approximate): 26
0042.909 (0) Table wp_wc_product_meta_lookup: Rows added in this batch (next record: 7008): 30 in 0.01 seconds
0042.979 (0) Table wp_wc_product_meta_lookup: finishing file(s) (2, 0.7 KB)
0043.016 (0) Table wp_wc_reserved_stock: Total expected rows (approximate): 0
0043.034 (0) Table wp_wc_reserved_stock: Rows added in this batch (next record: -1): 0 in 0.01 seconds
0043.108 (0) Table wp_wc_reserved_stock: finishing file(s) (2, 0.4 KB)
0043.137 (0) Table wp_wc_tax_rate_classes: Total expected rows (approximate): 2
0043.157 (0) Table wp_wc_tax_rate_classes: Rows added in this batch (next record: 2): 2 in 0.01 seconds
0043.199 (0) Table wp_wc_tax_rate_classes: finishing file(s) (2, 0.4 KB)
0043.223 (0) Table wp_woocommerce_order_itemmeta: Total expected rows (approximate): 0
0043.245 (0) Table wp_woocommerce_order_itemmeta: Rows added in this batch (next record: -1): 0 in 0.01 seconds
0043.293 (0) Table wp_woocommerce_order_itemmeta: finishing file(s) (2, 0.4 KB)
0043.316 (0) Table wp_woocommerce_payment_tokenmeta: Total expected rows (approximate): 0
0043.335 (0) Table wp_woocommerce_payment_tokenmeta: Rows added in this batch (next record: -1): 0 in 0.01 seconds
0043.377 (0) Table wp_woocommerce_payment_tokenmeta: finishing file(s) (2, 0.4 KB)
0043.400 (0) Table wp_learnpress_order_itemmeta: Total expected rows (approximate): 0
0043.417 (0) Table wp_learnpress_order_itemmeta: Rows added in this batch (next record: -1): 0 in 0.01 seconds
0043.463 (0) Table wp_learnpress_order_itemmeta: finishing file(s) (2, 0.4 KB)
0043.485 (0) Table wp_learnpress_order_items: Total expected rows (approximate): 0
0043.638 (0) Table wp_learnpress_order_items: Rows added in this batch (next record: -1): 0 in 0.02 seconds
0043.703 (0) Table wp_learnpress_order_items: finishing file(s) (2, 0.3 KB)
0043.741 (0) Table wp_learnpress_question_answermeta: Total expected rows (approximate): 0
0043.769 (0) Table wp_learnpress_question_answermeta: Rows added in this batch (next record: -1): 0 in 0.01 seconds
0043.831 (0) Table wp_learnpress_question_answermeta: finishing file(s) (2, 0.4 KB)
0043.861 (0) Table wp_learnpress_question_answers: Total expected rows (approximate): 0
0043.880 (0) Table wp_learnpress_question_answers: Rows added in this batch (next record: -1): 0 in 0.01 seconds
0043.937 (0) Table wp_learnpress_question_answers: finishing file(s) (2, 0.4 KB)
0043.964 (0) Table wp_learnpress_quiz_questions: Total expected rows (approximate): 0
0043.980 (0) Table wp_learnpress_quiz_questions: Rows added in this batch (next record: -1): 0 in 0.01 seconds
0044.025 (0) Table wp_learnpress_quiz_questions: finishing file(s) (2, 0.4 KB)
0044.052 (0) Table wp_learnpress_review_logs: Total expected rows (approximate): 8
0044.075 (0) Table wp_learnpress_review_logs: Rows added in this batch (next record: 8): 8 in 0.01 seconds
0044.116 (0) Table wp_learnpress_review_logs: finishing file(s) (2, 0.6 KB)
0044.147 (0) Table wp_learnpress_section_items: Total expected rows (approximate): 0
0044.163 (0) Table wp_learnpress_section_items: Rows added in this batch (next record: -1): 0 in 0.01 seconds
0044.211 (0) Table wp_learnpress_section_items: finishing file(s) (2, 0.4 KB)
0044.237 (0) Table wp_learnpress_sections: Total expected rows (approximate): 0
0044.256 (0) Table wp_learnpress_sections: Rows added in this batch (next record: -1): 0 in 0.00 seconds
0044.297 (0) Table wp_learnpress_sections: finishing file(s) (2, 0.4 KB)
0044.322 (0) Table wp_learnpress_sessions: Total expected rows (approximate): 1
0044.343 (0) Table wp_learnpress_sessions: Rows added in this batch (next record: 1000): 1 in 0.01 seconds
0044.381 (0) Table wp_learnpress_sessions: finishing file(s) (2, 0.5 KB)
0044.400 (0) Table wp_learnpress_user_itemmeta: Total expected rows (approximate): 0
0044.412 (0) Table wp_learnpress_user_itemmeta: Rows added in this batch (next record: -1): 0 in 0.00 seconds
0044.450 (0) Table wp_learnpress_user_itemmeta: finishing file(s) (2, 0.4 KB)
0044.472 (0) Table wp_learnpress_user_items: Total expected rows (approximate): 0
0044.488 (0) Table wp_learnpress_user_items: Rows added in this batch (next record: -1): 0 in 0.01 seconds
0044.675 (0) Table wp_learnpress_user_items: finishing file(s) (2, 0.4 KB)
0044.741 (0) Table wp_revslider_css: Total expected rows (approximate): 109
0044.770 (0) Table wp_revslider_css: Rows added in this batch (next record: 109): 109 in 0.02 seconds
0044.815 (0) Table wp_revslider_css: finishing file(s) (2, 4.9 KB)
0044.841 (0) Table wp_revslider_css_bkp: Total expected rows (approximate): 47
0044.860 (0) Table wp_revslider_css_bkp: Rows added in this batch (next record: 47): 47 in 0.01 seconds
0044.902 (0) Table wp_revslider_css_bkp: finishing file(s) (2, 1.8 KB)
0044.921 (0) Table wp_revslider_layer_animations: Total expected rows (approximate): 0
0044.934 (0) Table wp_revslider_layer_animations: Rows added in this batch (next record: -1): 0 in 0.00 seconds
0044.969 (0) Table wp_revslider_layer_animations: finishing file(s) (2, 0.3 KB)
0044.990 (0) Table wp_revslider_layer_animations_bkp: Total expected rows (approximate): 0
0045.008 (0) Table wp_revslider_layer_animations_bkp: Rows added in this batch (next record: -1): 0 in 0.01 seconds
0045.066 (0) Table wp_revslider_layer_animations_bkp: finishing file(s) (2, 0.3 KB)
0045.113 (0) Table wp_revslider_navigations: Total expected rows (approximate): 0
0045.131 (0) Table wp_revslider_navigations: Rows added in this batch (next record: -1): 0 in 0.01 seconds
0045.182 (0) Table wp_revslider_navigations: finishing file(s) (2, 0.4 KB)
0045.204 (0) Table wp_revslider_navigations_bkp: Total expected rows (approximate): 0
0045.221 (0) Table wp_revslider_navigations_bkp: Rows added in this batch (next record: -1): 0 in 0.01 seconds
0045.272 (0) Table wp_revslider_navigations_bkp: finishing file(s) (2, 0.4 KB)
0045.287 (0) Table wp_revslider_sliders: Total expected rows (approximate): 11
0045.308 (0) Table wp_revslider_sliders: Rows added in this batch (next record: 13): 13 in 0.02 seconds
0045.341 (0) Table wp_revslider_sliders: finishing file(s) (2, 5.5 KB)
0045.360 (0) Table wp_revslider_sliders_bkp: Total expected rows (approximate): 0
0045.372 (0) Table wp_revslider_sliders_bkp: Rows added in this batch (next record: -1): 0 in 0.00 seconds
0045.408 (0) Table wp_revslider_sliders_bkp: finishing file(s) (2, 0.4 KB)
0045.425 (0) Table wp_revslider_slides: Total expected rows (approximate): 32
0045.474 (0) Table wp_revslider_slides: Rows added in this batch (next record: 38): 37 in 0.04 seconds
0045.521 (0) Table wp_revslider_slides: finishing file(s) (2, 16.6 KB)
0045.664 (0) Table wp_revslider_slides_bkp: Total expected rows (approximate): 0
0045.861 (0) Table wp_revslider_slides_bkp: Rows added in this batch (next record: -1): 0 in 0.02 seconds
0045.893 (0) Table wp_revslider_slides_bkp: finishing file(s) (2, 0.4 KB)
0045.906 (0) Table wp_revslider_static_slides: Total expected rows (approximate): 11
0045.918 (0) Table wp_revslider_static_slides: Rows added in this batch (next record: 13): 13 in 0.01 seconds
0045.947 (0) Table wp_revslider_static_slides: finishing file(s) (2, 0.5 KB)
0045.962 (0) Table wp_revslider_static_slides_bkp: Total expected rows (approximate): 0
0045.975 (0) Table wp_revslider_static_slides_bkp: Rows added in this batch (next record: -1): 0 in 0.01 seconds
0046.008 (0) Table wp_revslider_static_slides_bkp: finishing file(s) (2, 0.3 KB)
0046.026 (0) Table wp_wc_admin_note_actions: Total expected rows (approximate): 11
0046.042 (0) Table wp_wc_admin_note_actions: Rows added in this batch (next record: 20): 20 in 0.01 seconds
0046.073 (0) Table wp_wc_admin_note_actions: finishing file(s) (2, 1.2 KB)
0046.090 (0) Table wp_wc_admin_notes: Total expected rows (approximate): 10
0046.104 (0) Table wp_wc_admin_notes: Rows added in this batch (next record: 19): 19 in 0.01 seconds
0046.137 (0) Table wp_wc_admin_notes: finishing file(s) (2, 3 KB)
0046.152 (0) Table wp_wc_customer_lookup: Total expected rows (approximate): 16
0046.166 (0) Table wp_wc_customer_lookup: Rows added in this batch (next record: 16): 16 in 0.01 seconds
0046.193 (0) Table wp_wc_customer_lookup: finishing file(s) (2, 1.1 KB)
0046.207 (0) Table wp_wc_download_log: Total expected rows (approximate): 0
0046.220 (0) Table wp_wc_download_log: Rows added in this batch (next record: -1): 0 in 0.01 seconds
0046.250 (0) Table wp_wc_download_log: finishing file(s) (2, 0.5 KB)
0046.265 (0) Table wp_wc_order_coupon_lookup: Total expected rows (approximate): 0
0046.275 (0) Table wp_wc_order_coupon_lookup: Rows added in this batch (next record: -1): 0 in 0.01 seconds
0046.302 (0) Table wp_wc_order_coupon_lookup: finishing file(s) (2, 0.4 KB)
0046.316 (0) Table wp_wc_order_product_lookup: Total expected rows (approximate): 0
0046.327 (0) Table wp_wc_order_product_lookup: Rows added in this batch (next record: -1): 0 in 0.01 seconds
0046.356 (0) Table wp_wc_order_product_lookup: finishing file(s) (2, 0.5 KB)
0046.369 (0) Table wp_wc_order_stats: Total expected rows (approximate): 17
0046.380 (0) Table wp_wc_order_stats: Rows added in this batch (next record: 6235): 17 in 0.01 seconds
0046.409 (0) Table wp_wc_order_stats: finishing file(s) (2, 0.9 KB)
0046.424 (0) Table wp_wc_order_tax_lookup: Total expected rows (approximate): 0
0046.434 (0) Table wp_wc_order_tax_lookup: Rows added in this batch (next record: -1): 0 in 0.00 seconds
0046.463 (0) Table wp_wc_order_tax_lookup: finishing file(s) (2, 0.4 KB)
0046.476 (0) Table wp_wc_webhooks: Total expected rows (approximate): 0
0046.487 (0) Table wp_wc_webhooks: Rows added in this batch (next record: -1): 0 in 0.01 seconds
0046.514 (0) Table wp_wc_webhooks: finishing file(s) (2, 0.5 KB)
0046.577 (0) Table wp_woocommerce_api_keys: Total expected rows (approximate): 0
0046.603 (0) Table wp_woocommerce_api_keys: Rows added in this batch (next record: -1): 0 in 0.01 seconds
0046.634 (0) Table wp_woocommerce_api_keys: finishing file(s) (2, 0.5 KB)
0046.648 (0) Table wp_woocommerce_attribute_taxonomies: Total expected rows (approximate): 2
0046.662 (0) Table wp_woocommerce_attribute_taxonomies: Rows added in this batch (next record: 3): 3 in 0.01 seconds
0046.694 (0) Table wp_woocommerce_attribute_taxonomies: finishing file(s) (2, 0.5 KB)
0046.708 (0) Table wp_woocommerce_downloadable_product_permissions: Total expected rows (approximate): 0
0046.721 (0) Table wp_woocommerce_downloadable_product_permissions: Rows added in this batch (next record: -1): 0 in 0.01 seconds
0046.753 (0) Table wp_woocommerce_downloadable_product_permissions: finishing file(s) (2, 0.5 KB)
0046.767 (0) Table wp_woocommerce_log: Total expected rows (approximate): 0
0046.778 (0) Table wp_woocommerce_log: Rows added in this batch (next record: -1): 0 in 0.01 seconds
0046.808 (0) Table wp_woocommerce_log: finishing file(s) (2, 0.4 KB)
0046.825 (0) Table wp_woocommerce_order_items: Total expected rows (approximate): 0
0046.839 (0) Table wp_woocommerce_order_items: Rows added in this batch (next record: -1): 0 in 0.01 seconds
0046.866 (0) Table wp_woocommerce_order_items: finishing file(s) (2, 0.4 KB)
0046.878 (0) Table wp_woocommerce_payment_tokens: Total expected rows (approximate): 0
0046.889 (0) Table wp_woocommerce_payment_tokens: Rows added in this batch (next record: -1): 0 in 0.01 seconds
0046.919 (0) Table wp_woocommerce_payment_tokens: finishing file(s) (2, 0.4 KB)
0046.933 (0) Table wp_woocommerce_sessions: Total expected rows (approximate): 2
0046.946 (0) Table wp_woocommerce_sessions: Rows added in this batch (next record: 69): 1 in 0.01 seconds
0046.974 (0) Table wp_woocommerce_sessions: finishing file(s) (2, 0.8 KB)
0046.986 (0) Table wp_woocommerce_shipping_zone_locations: Total expected rows (approximate): 0
0046.996 (0) Table wp_woocommerce_shipping_zone_locations: Rows added in this batch (next record: -1): 0 in 0.01 seconds
0047.025 (0) Table wp_woocommerce_shipping_zone_locations: finishing file(s) (2, 0.4 KB)
0047.039 (0) Table wp_woocommerce_shipping_zone_methods: Total expected rows (approximate): 0
0047.048 (0) Table wp_woocommerce_shipping_zone_methods: Rows added in this batch (next record: -1): 0 in 0.00 seconds
0047.077 (0) Table wp_woocommerce_shipping_zone_methods: finishing file(s) (2, 0.4 KB)
0047.091 (0) Table wp_woocommerce_shipping_zones: Total expected rows (approximate): 0
0047.099 (0) Table wp_woocommerce_shipping_zones: Rows added in this batch (next record: -1): 0 in 0.00 seconds
0047.127 (0) Table wp_woocommerce_shipping_zones: finishing file(s) (2, 0.4 KB)
0047.140 (0) Table wp_woocommerce_tax_rate_locations: Total expected rows (approximate): 0
0047.150 (0) Table wp_woocommerce_tax_rate_locations: Rows added in this batch (next record: -1): 0 in 0.00 seconds
0047.179 (0) Table wp_woocommerce_tax_rate_locations: finishing file(s) (2, 0.4 KB)
0047.194 (0) Table wp_woocommerce_tax_rates: Total expected rows (approximate): 0
0047.203 (0) Table wp_woocommerce_tax_rates: Rows added in this batch (next record: -1): 0 in 0.00 seconds
0047.233 (0) Table wp_woocommerce_tax_rates: finishing file(s) (2, 0.5 KB)
0047.252 (0) Table wp_yith_wcwl: Total expected rows (approximate): 1
0047.266 (0) Table wp_yith_wcwl: Rows added in this batch (next record: 1): 1 in 0.01 seconds
0047.301 (0) Table wp_yith_wcwl: finishing file(s) (2, 0.5 KB)
0047.317 (0) Table wp_yith_wcwl_lists: Total expected rows (approximate): 0
0047.329 (0) Table wp_yith_wcwl_lists: Rows added in this batch (next record: 1): 1 in 0.01 seconds
0047.362 (0) Table wp_yith_wcwl_lists: finishing file(s) (2, 0.5 KB)
0047.369 (0) backup_2021-01-07-0948_Elt_Turkey_1c594c7830d8-db-table-wp_options.table.tmpr11010.gz (1/68): adding to final database dump
0047.482 (0) backup_2021-01-07-0948_Elt_Turkey_1c594c7830d8-db-table-wp_options.table.gz (2/68): adding to final database dump
0047.490 (0) backup_2021-01-07-0948_Elt_Turkey_1c594c7830d8-db-table-wp_users.table.tmpr2.gz (3/68): adding to final database dump
0047.496 (0) backup_2021-01-07-0948_Elt_Turkey_1c594c7830d8-db-table-wp_users.table.gz (4/68): adding to final database dump
0047.502 (0) backup_2021-01-07-0948_Elt_Turkey_1c594c7830d8-db-table-wp_usermeta.table.tmpr65.gz (5/68): adding to final database dump
0047.508 (0) backup_2021-01-07-0948_Elt_Turkey_1c594c7830d8-db-table-wp_usermeta.table.gz (6/68): adding to final database dump
0047.513 (0) backup_2021-01-07-0948_Elt_Turkey_1c594c7830d8-db-table-wp_actionscheduler_actions.table.tmpr42.gz (7/68): adding to final database dump
0047.519 (0) backup_2021-01-07-0948_Elt_Turkey_1c594c7830d8-db-table-wp_actionscheduler_actions.table.gz (8/68): adding to final database dump
0047.524 (0) backup_2021-01-07-0948_Elt_Turkey_1c594c7830d8-db-table-wp_actionscheduler_claims.table.tmpr0.gz (9/68): adding to final database dump
0047.552 (0) backup_2021-01-07-0948_Elt_Turkey_1c594c7830d8-db-table-wp_actionscheduler_claims.table.gz (10/68): adding to final database dump
0047.606 (0) backup_2021-01-07-0948_Elt_Turkey_1c594c7830d8-db-table-wp_actionscheduler_groups.table.tmpr5.gz (11/68): adding to final database dump
0047.732 (0) backup_2021-01-07-0948_Elt_Turkey_1c594c7830d8-db-table-wp_actionscheduler_groups.table.gz (12/68): adding to final database dump
0047.774 (0) backup_2021-01-07-0948_Elt_Turkey_1c594c7830d8-db-table-wp_actionscheduler_logs.table.tmpr103.gz (13/68): adding to final database dump
0047.780 (0) backup_2021-01-07-0948_Elt_Turkey_1c594c7830d8-db-table-wp_actionscheduler_logs.table.gz (14/68): adding to final database dump
0047.788 (0) backup_2021-01-07-0948_Elt_Turkey_1c594c7830d8-db-table-wp_commentmeta.table.tmpr9.gz (15/68): adding to final database dump
0047.797 (0) backup_2021-01-07-0948_Elt_Turkey_1c594c7830d8-db-table-wp_commentmeta.table.gz (16/68): adding to final database dump
0047.805 (0) backup_2021-01-07-0948_Elt_Turkey_1c594c7830d8-db-table-wp_comments.table.tmpr27.gz (17/68): adding to final database dump
0047.814 (0) backup_2021-01-07-0948_Elt_Turkey_1c594c7830d8-db-table-wp_comments.table.gz (18/68): adding to final database dump
0047.822 (0) backup_2021-01-07-0948_Elt_Turkey_1c594c7830d8-db-table-wp_links.table.tmpr0.gz (19/68): adding to final database dump
0047.832 (0) backup_2021-01-07-0948_Elt_Turkey_1c594c7830d8-db-table-wp_links.table.gz (20/68): adding to final database dump
0047.840 (0) backup_2021-01-07-0948_Elt_Turkey_1c594c7830d8-db-table-wp_postmeta.table.tmpr12619.gz (21/68): adding to final database dump
0047.893 (0) backup_2021-01-07-0948_Elt_Turkey_1c594c7830d8-db-table-wp_postmeta.table.gz (22/68): adding to final database dump
0047.911 (0) backup_2021-01-07-0948_Elt_Turkey_1c594c7830d8-db-table-wp_posts.table.tmpr7028.gz (23/68): adding to final database dump
0048.016 (0) backup_2021-01-07-0948_Elt_Turkey_1c594c7830d8-db-table-wp_posts.table.gz (24/68): adding to final database dump
0048.032 (0) backup_2021-01-07-0948_Elt_Turkey_1c594c7830d8-db-table-wp_term_relationships.table.tmpr105.gz (25/68): adding to final database dump
0048.041 (0) backup_2021-01-07-0948_Elt_Turkey_1c594c7830d8-db-table-wp_term_relationships.table.gz (26/68): adding to final database dump
0048.049 (0) backup_2021-01-07-0948_Elt_Turkey_1c594c7830d8-db-table-wp_term_taxonomy.table.tmpr105.gz (27/68): adding to final database dump
0048.058 (0) backup_2021-01-07-0948_Elt_Turkey_1c594c7830d8-db-table-wp_term_taxonomy.table.gz (28/68): adding to final database dump
0048.067 (0) backup_2021-01-07-0948_Elt_Turkey_1c594c7830d8-db-table-wp_termmeta.table.tmpr62.gz (29/68): adding to final database dump
0048.075 (0) backup_2021-01-07-0948_Elt_Turkey_1c594c7830d8-db-table-wp_termmeta.table.gz (30/68): adding to final database dump
0048.083 (0) backup_2021-01-07-0948_Elt_Turkey_1c594c7830d8-db-table-wp_terms.table.tmpr105.gz (31/68): adding to final database dump
0048.089 (0) backup_2021-01-07-0948_Elt_Turkey_1c594c7830d8-db-table-wp_terms.table.gz (32/68): adding to final database dump
0048.095 (0) backup_2021-01-07-0948_Elt_Turkey_1c594c7830d8-db-table-wp_wc_category_lookup.table.tmpr97.gz (33/68): adding to final database dump
0048.100 (0) backup_2021-01-07-0948_Elt_Turkey_1c594c7830d8-db-table-wp_wc_category_lookup.table.gz (34/68): adding to final database dump
0048.105 (0) backup_2021-01-07-0948_Elt_Turkey_1c594c7830d8-db-table-wp_wc_product_meta_lookup.table.tmpr7009.gz (35/68): adding to final database dump
0048.111 (0) backup_2021-01-07-0948_Elt_Turkey_1c594c7830d8-db-table-wp_wc_product_meta_lookup.table.gz (36/68): adding to final database dump
0048.117 (0) backup_2021-01-07-0948_Elt_Turkey_1c594c7830d8-db-table-wp_wc_reserved_stock.table.tmpr0.gz (37/68): adding to final database dump
0048.125 (0) backup_2021-01-07-0948_Elt_Turkey_1c594c7830d8-db-table-wp_wc_reserved_stock.table.gz (38/68): adding to final database dump
0048.130 (0) backup_2021-01-07-0948_Elt_Turkey_1c594c7830d8-db-table-wp_wc_tax_rate_classes.table.tmpr3.gz (39/68): adding to final database dump
0048.141 (0) backup_2021-01-07-0948_Elt_Turkey_1c594c7830d8-db-table-wp_wc_tax_rate_classes.table.gz (40/68): adding to final database dump
0048.146 (0) backup_2021-01-07-0948_Elt_Turkey_1c594c7830d8-db-table-wp_woocommerce_order_itemmeta.table.tmpr0.gz (41/68): adding to final database dump
0048.152 (0) backup_2021-01-07-0948_Elt_Turkey_1c594c7830d8-db-table-wp_woocommerce_order_itemmeta.table.gz (42/68): adding to final database dump
0048.164 (0) backup_2021-01-07-0948_Elt_Turkey_1c594c7830d8-db-table-wp_woocommerce_payment_tokenmeta.table.tmpr0.gz (43/68): adding to final database dump
0048.176 (0) backup_2021-01-07-0948_Elt_Turkey_1c594c7830d8-db-table-wp_woocommerce_payment_tokenmeta.table.gz (44/68): adding to final database dump
0048.185 (0) backup_2021-01-07-0948_Elt_Turkey_1c594c7830d8-db-table-wp_learnpress_order_itemmeta.table.tmpr0.gz (45/68): adding to final database dump
0048.198 (0) backup_2021-01-07-0948_Elt_Turkey_1c594c7830d8-db-table-wp_learnpress_order_itemmeta.table.gz (46/68): adding to final database dump
0048.213 (0) backup_2021-01-07-0948_Elt_Turkey_1c594c7830d8-db-table-wp_learnpress_order_items.table.tmpr0.gz (47/68): adding to final database dump
0048.231 (0) backup_2021-01-07-0948_Elt_Turkey_1c594c7830d8-db-table-wp_learnpress_order_items.table.gz (48/68): adding to final database dump
0048.244 (0) backup_2021-01-07-0948_Elt_Turkey_1c594c7830d8-db-table-wp_learnpress_question_answermeta.table.tmpr0.gz (49/68): adding to final database dump
0048.259 (0) backup_2021-01-07-0948_Elt_Turkey_1c594c7830d8-db-table-wp_learnpress_question_answermeta.table.gz (50/68): adding to final database dump
0048.276 (0) backup_2021-01-07-0948_Elt_Turkey_1c594c7830d8-db-table-wp_learnpress_question_answers.table.tmpr0.gz (51/68): adding to final database dump
0048.294 (0) backup_2021-01-07-0948_Elt_Turkey_1c594c7830d8-db-table-wp_learnpress_question_answers.table.gz (52/68): adding to final database dump
0048.308 (0) backup_2021-01-07-0948_Elt_Turkey_1c594c7830d8-db-table-wp_learnpress_quiz_questions.table.tmpr0.gz (53/68): adding to final database dump
0048.321 (0) backup_2021-01-07-0948_Elt_Turkey_1c594c7830d8-db-table-wp_learnpress_quiz_questions.table.gz (54/68): adding to final database dump
0048.339 (0) backup_2021-01-07-0948_Elt_Turkey_1c594c7830d8-db-table-wp_learnpress_review_logs.table.tmpr9.gz (55/68): adding to final database dump
0048.356 (0) backup_2021-01-07-0948_Elt_Turkey_1c594c7830d8-db-table-wp_learnpress_review_logs.table.gz (56/68): adding to final database dump
0048.369 (0) backup_2021-01-07-0948_Elt_Turkey_1c594c7830d8-db-table-wp_learnpress_section_items.table.tmpr0.gz (57/68): adding to final database dump
0048.390 (0) backup_2021-01-07-0948_Elt_Turkey_1c594c7830d8-db-table-wp_learnpress_section_items.table.gz (58/68): adding to final database dump
0048.401 (0) backup_2021-01-07-0948_Elt_Turkey_1c594c7830d8-db-table-wp_learnpress_sections.table.tmpr0.gz (59/68): adding to final database dump
0048.418 (0) backup_2021-01-07-0948_Elt_Turkey_1c594c7830d8-db-table-wp_learnpress_sections.table.gz (60/68): adding to final database dump
0048.432 (0) backup_2021-01-07-0948_Elt_Turkey_1c594c7830d8-db-table-wp_learnpress_sessions.table.tmpr1001.gz (61/68): adding to final database dump
0048.445 (0) backup_2021-01-07-0948_Elt_Turkey_1c594c7830d8-db-table-wp_learnpress_sessions.table.gz (62/68): adding to final database dump
0048.466 (0) backup_2021-01-07-0948_Elt_Turkey_1c594c7830d8-db-table-wp_learnpress_user_itemmeta.table.tmpr0.gz (63/68): adding to final database dump
0048.479 (0) backup_2021-01-07-0948_Elt_Turkey_1c594c7830d8-db-table-wp_learnpress_user_itemmeta.table.gz (64/68): adding to final database dump
0048.501 (0) backup_2021-01-07-0948_Elt_Turkey_1c594c7830d8-db-table-wp_learnpress_user_items.table.tmpr0.gz (65/68): adding to final database dump
0048.515 (0) backup_2021-01-07-0948_Elt_Turkey_1c594c7830d8-db-table-wp_learnpress_user_items.table.gz (66/68): adding to final database dump
0048.526 (0) backup_2021-01-07-0948_Elt_Turkey_1c594c7830d8-db-table-wp_revslider_css.table.tmpr110.gz (67/68): adding to final database dump
0048.538 (0) backup_2021-01-07-0948_Elt_Turkey_1c594c7830d8-db-table-wp_revslider_css.table.gz (68/68): adding to final database dump
0048.720 (0) backup_2021-01-07-0948_Elt_Turkey_1c594c7830d8-db-table-wp_revslider_css_bkp.table.tmpr48.gz (69/68): adding to final database dump
0048.754 (0) backup_2021-01-07-0948_Elt_Turkey_1c594c7830d8-db-table-wp_revslider_css_bkp.table.gz (70/68): adding to final database dump
0048.765 (0) backup_2021-01-07-0948_Elt_Turkey_1c594c7830d8-db-table-wp_revslider_layer_animations.table.tmpr0.gz (71/68): adding to final database dump
0048.783 (0) backup_2021-01-07-0948_Elt_Turkey_1c594c7830d8-db-table-wp_revslider_layer_animations.table.gz (72/68): adding to final database dump
0048.799 (0) backup_2021-01-07-0948_Elt_Turkey_1c594c7830d8-db-table-wp_revslider_layer_animations_bkp.table.tmpr0.gz (73/68): adding to final database dump
0048.809 (0) backup_2021-01-07-0948_Elt_Turkey_1c594c7830d8-db-table-wp_revslider_layer_animations_bkp.table.gz (74/68): adding to final database dump
0048.819 (0) backup_2021-01-07-0948_Elt_Turkey_1c594c7830d8-db-table-wp_revslider_navigations.table.tmpr0.gz (75/68): adding to final database dump
0048.828 (0) backup_2021-01-07-0948_Elt_Turkey_1c594c7830d8-db-table-wp_revslider_navigations.table.gz (76/68): adding to final database dump
0048.840 (0) backup_2021-01-07-0948_Elt_Turkey_1c594c7830d8-db-table-wp_revslider_navigations_bkp.table.tmpr0.gz (77/68): adding to final database dump
0048.852 (0) backup_2021-01-07-0948_Elt_Turkey_1c594c7830d8-db-table-wp_revslider_navigations_bkp.table.gz (78/68): adding to final database dump
0048.860 (0) backup_2021-01-07-0948_Elt_Turkey_1c594c7830d8-db-table-wp_revslider_sliders.table.tmpr14.gz (79/68): adding to final database dump
0048.871 (0) backup_2021-01-07-0948_Elt_Turkey_1c594c7830d8-db-table-wp_revslider_sliders.table.gz (80/68): adding to final database dump
0048.880 (0) backup_2021-01-07-0948_Elt_Turkey_1c594c7830d8-db-table-wp_revslider_sliders_bkp.table.tmpr0.gz (81/68): adding to final database dump
0048.889 (0) backup_2021-01-07-0948_Elt_Turkey_1c594c7830d8-db-table-wp_revslider_sliders_bkp.table.gz (82/68): adding to final database dump
0048.900 (0) backup_2021-01-07-0948_Elt_Turkey_1c594c7830d8-db-table-wp_revslider_slides.table.tmpr39.gz (83/68): adding to final database dump
0048.916 (0) backup_2021-01-07-0948_Elt_Turkey_1c594c7830d8-db-table-wp_revslider_slides.table.gz (84/68): adding to final database dump
0048.925 (0) backup_2021-01-07-0948_Elt_Turkey_1c594c7830d8-db-table-wp_revslider_slides_bkp.table.tmpr0.gz (85/68): adding to final database dump
0048.933 (0) backup_2021-01-07-0948_Elt_Turkey_1c594c7830d8-db-table-wp_revslider_slides_bkp.table.gz (86/68): adding to final database dump
0048.941 (0) backup_2021-01-07-0948_Elt_Turkey_1c594c7830d8-db-table-wp_revslider_static_slides.table.tmpr14.gz (87/68): adding to final database dump
0048.949 (0) backup_2021-01-07-0948_Elt_Turkey_1c594c7830d8-db-table-wp_revslider_static_slides.table.gz (88/68): adding to final database dump
0048.959 (0) backup_2021-01-07-0948_Elt_Turkey_1c594c7830d8-db-table-wp_revslider_static_slides_bkp.table.tmpr0.gz (89/68): adding to final database dump
0048.967 (0) backup_2021-01-07-0948_Elt_Turkey_1c594c7830d8-db-table-wp_revslider_static_slides_bkp.table.gz (90/68): adding to final database dump
0048.976 (0) backup_2021-01-07-0948_Elt_Turkey_1c594c7830d8-db-table-wp_wc_admin_note_actions.table.tmpr21.gz (91/68): adding to final database dump
0048.984 (0) backup_2021-01-07-0948_Elt_Turkey_1c594c7830d8-db-table-wp_wc_admin_note_actions.table.gz (92/68): adding to final database dump
0048.993 (0) backup_2021-01-07-0948_Elt_Turkey_1c594c7830d8-db-table-wp_wc_admin_notes.table.tmpr20.gz (93/68): adding to final database dump
0049.003 (0) backup_2021-01-07-0948_Elt_Turkey_1c594c7830d8-db-table-wp_wc_admin_notes.table.gz (94/68): adding to final database dump
0049.011 (0) backup_2021-01-07-0948_Elt_Turkey_1c594c7830d8-db-table-wp_wc_customer_lookup.table.tmpr17.gz (95/68): adding to final database dump
0049.019 (0) backup_2021-01-07-0948_Elt_Turkey_1c594c7830d8-db-table-wp_wc_customer_lookup.table.gz (96/68): adding to final database dump
0049.028 (0) backup_2021-01-07-0948_Elt_Turkey_1c594c7830d8-db-table-wp_wc_download_log.table.tmpr0.gz (97/68): adding to final database dump
0049.034 (0) backup_2021-01-07-0948_Elt_Turkey_1c594c7830d8-db-table-wp_wc_download_log.table.gz (98/68): adding to final database dump
0049.040 (0) backup_2021-01-07-0948_Elt_Turkey_1c594c7830d8-db-table-wp_wc_order_coupon_lookup.table.tmpr0.gz (99/68): adding to final database dump
0049.051 (0) backup_2021-01-07-0948_Elt_Turkey_1c594c7830d8-db-table-wp_wc_order_coupon_lookup.table.gz (100/68): adding to final database dump
0049.057 (0) backup_2021-01-07-0948_Elt_Turkey_1c594c7830d8-db-table-wp_wc_order_product_lookup.table.tmpr0.gz (101/68): adding to final database dump
0049.062 (0) backup_2021-01-07-0948_Elt_Turkey_1c594c7830d8-db-table-wp_wc_order_product_lookup.table.gz (102/68): adding to final database dump
0049.069 (0) backup_2021-01-07-0948_Elt_Turkey_1c594c7830d8-db-table-wp_wc_order_stats.table.tmpr6236.gz (103/68): adding to final database dump
0049.074 (0) backup_2021-01-07-0948_Elt_Turkey_1c594c7830d8-db-table-wp_wc_order_stats.table.gz (104/68): adding to final database dump
0049.083 (0) backup_2021-01-07-0948_Elt_Turkey_1c594c7830d8-db-table-wp_wc_order_tax_lookup.table.tmpr0.gz (105/68): adding to final database dump
0049.088 (0) backup_2021-01-07-0948_Elt_Turkey_1c594c7830d8-db-table-wp_wc_order_tax_lookup.table.gz (106/68): adding to final database dump
0049.094 (0) backup_2021-01-07-0948_Elt_Turkey_1c594c7830d8-db-table-wp_wc_webhooks.table.tmpr0.gz (107/68): adding to final database dump
0049.102 (0) backup_2021-01-07-0948_Elt_Turkey_1c594c7830d8-db-table-wp_wc_webhooks.table.gz (108/68): adding to final database dump
0049.108 (0) backup_2021-01-07-0948_Elt_Turkey_1c594c7830d8-db-table-wp_woocommerce_api_keys.table.tmpr0.gz (109/68): adding to final database dump
0049.115 (0) backup_2021-01-07-0948_Elt_Turkey_1c594c7830d8-db-table-wp_woocommerce_api_keys.table.gz (110/68): adding to final database dump
0049.121 (0) backup_2021-01-07-0948_Elt_Turkey_1c594c7830d8-db-table-wp_woocommerce_attribute_taxonomies.table.tmpr4.gz (111/68): adding to final database dump
0049.127 (0) backup_2021-01-07-0948_Elt_Turkey_1c594c7830d8-db-table-wp_woocommerce_attribute_taxonomies.table.gz (112/68): adding to final database dump
0049.133 (0) backup_2021-01-07-0948_Elt_Turkey_1c594c7830d8-db-table-wp_woocommerce_downloadable_product_permissions.table.tmpr0.gz (113/68): adding to final database dump
0049.140 (0) backup_2021-01-07-0948_Elt_Turkey_1c594c7830d8-db-table-wp_woocommerce_downloadable_product_permissions.table.gz (114/68): adding to final database dump
0049.152 (0) backup_2021-01-07-0948_Elt_Turkey_1c594c7830d8-db-table-wp_woocommerce_log.table.tmpr0.gz (115/68): adding to final database dump
0049.162 (0) backup_2021-01-07-0948_Elt_Turkey_1c594c7830d8-db-table-wp_woocommerce_log.table.gz (116/68): adding to final database dump
0049.171 (0) backup_2021-01-07-0948_Elt_Turkey_1c594c7830d8-db-table-wp_woocommerce_order_items.table.tmpr0.gz (117/68): adding to final database dump
0049.181 (0) backup_2021-01-07-0948_Elt_Turkey_1c594c7830d8-db-table-wp_woocommerce_order_items.table.gz (118/68): adding to final database dump
0049.190 (0) backup_2021-01-07-0948_Elt_Turkey_1c594c7830d8-db-table-wp_woocommerce_payment_tokens.table.tmpr0.gz (119/68): adding to final database dump
0049.200 (0) backup_2021-01-07-0948_Elt_Turkey_1c594c7830d8-db-table-wp_woocommerce_payment_tokens.table.gz (120/68): adding to final database dump
0049.209 (0) backup_2021-01-07-0948_Elt_Turkey_1c594c7830d8-db-table-wp_woocommerce_sessions.table.tmpr70.gz (121/68): adding to final database dump
0049.218 (0) backup_2021-01-07-0948_Elt_Turkey_1c594c7830d8-db-table-wp_woocommerce_sessions.table.gz (122/68): adding to final database dump
0049.230 (0) backup_2021-01-07-0948_Elt_Turkey_1c594c7830d8-db-table-wp_woocommerce_shipping_zone_locations.table.tmpr0.gz (123/68): adding to final database dump
0049.238 (0) backup_2021-01-07-0948_Elt_Turkey_1c594c7830d8-db-table-wp_woocommerce_shipping_zone_locations.table.gz (124/68): adding to final database dump
0049.246 (0) backup_2021-01-07-0948_Elt_Turkey_1c594c7830d8-db-table-wp_woocommerce_shipping_zone_methods.table.tmpr0.gz (125/68): adding to final database dump
0049.253 (0) backup_2021-01-07-0948_Elt_Turkey_1c594c7830d8-db-table-wp_woocommerce_shipping_zone_methods.table.gz (126/68): adding to final database dump
0049.261 (0) backup_2021-01-07-0948_Elt_Turkey_1c594c7830d8-db-table-wp_woocommerce_shipping_zones.table.tmpr0.gz (127/68): adding to final database dump
0049.268 (0) backup_2021-01-07-0948_Elt_Turkey_1c594c7830d8-db-table-wp_woocommerce_shipping_zones.table.gz (128/68): adding to final database dump
0049.275 (0) backup_2021-01-07-0948_Elt_Turkey_1c594c7830d8-db-table-wp_woocommerce_tax_rate_locations.table.tmpr0.gz (129/68): adding to final database dump
0049.282 (0) backup_2021-01-07-0948_Elt_Turkey_1c594c7830d8-db-table-wp_woocommerce_tax_rate_locations.table.gz (130/68): adding to final database dump
0049.291 (0) backup_2021-01-07-0948_Elt_Turkey_1c594c7830d8-db-table-wp_woocommerce_tax_rates.table.tmpr0.gz (131/68): adding to final database dump
0049.299 (0) backup_2021-01-07-0948_Elt_Turkey_1c594c7830d8-db-table-wp_woocommerce_tax_rates.table.gz (132/68): adding to final database dump
0049.307 (0) backup_2021-01-07-0948_Elt_Turkey_1c594c7830d8-db-table-wp_yith_wcwl.table.tmpr2.gz (133/68): adding to final database dump
0049.312 (0) backup_2021-01-07-0948_Elt_Turkey_1c594c7830d8-db-table-wp_yith_wcwl.table.gz (134/68): adding to final database dump
0049.317 (0) backup_2021-01-07-0948_Elt_Turkey_1c594c7830d8-db-table-wp_yith_wcwl_lists.table.tmpr2.gz (135/68): adding to final database dump
0049.322 (0) backup_2021-01-07-0948_Elt_Turkey_1c594c7830d8-db-table-wp_yith_wcwl_lists.table.gz (136/68): adding to final database dump
0049.347 (0) backup_2021-01-07-0948_Elt_Turkey_1c594c7830d8-db.gz: finished writing out complete database file (904 KB)
0049.443 (0) Total database tables backed up: 68 (backup_2021-01-07-0948_Elt_Turkey_1c594c7830d8-db.gz, size: 937519, sha1: c7ae1134b2894a2b3ad59e17091be67df6e4b74a, sha256: 215e0245948934b41e6f0d386d3cf5ff519a7d35f8ee930f2fe3391a2d2f5deb)
0049.493 (0) backup_2021-01-07-0948_Elt_Turkey_1c594c7830d8-wpcore.zip: wpcore: This file has not yet been successfully uploaded: will queue
0049.501 (0) backup_2021-01-07-0948_Elt_Turkey_1c594c7830d8-db.gz: db: This file has not yet been successfully uploaded: will queue
0049.513 (0) Saving backup history. Total backup size: 11.9 MB
0049.549 (0) Requesting upload of the files that have not yet been successfully uploaded (2)
0049.757 (0) Cloud backup selection (1/1): none with instance (1/1) (last)
0049.773 (0) No remote despatch: user chose no remote backup service
0049.781 (0) Recording as successfully uploaded: backup_2021-01-07-0948_Elt_Turkey_1c594c7830d8-wpcore.zip
0049.804 (0) Recording as successfully uploaded: backup_2021-01-07-0948_Elt_Turkey_1c594c7830d8-db.gz
0049.828 (0) Retain: beginning examination of existing backup sets; user setting: retain_files=2, retain_db=2
0049.835 (0) Number of backup sets in history: 8; groups (db): 1
0049.843 (0) Examining (for databases) backup set with group_id=0, nonce=1c594c7830d8, datestamp=1610002087 (Jan 07 2021 06:48:07)
0049.848 (0) This backup set is the backup set just made, so will not be deleted.
0049.848 (0) Examining (for databases) backup set with group_id=0, nonce=31b276f44501, datestamp=1609947027 (Jan 06 2021 15:30:27)
0049.848 (0) This backup set (1609947027) was an automatic backup, and we have not yet reached any retain limits, so it will not be counted or pruned. Skipping.
0049.848 (0) Examining (for databases) backup set with group_id=0, nonce=a6ec7027cdc9, datestamp=1609946982 (Jan 06 2021 15:29:42)
0049.848 (0) This backup set (1609946982) was an automatic backup, and we have not yet reached any retain limits, so it will not be counted or pruned. Skipping.
0049.849 (0) Examining (for databases) backup set with group_id=0, nonce=64383705ad1f, datestamp=1609946867 (Jan 06 2021 15:27:47)
0049.849 (0) This backup set (1609946867) was an automatic backup, and we have not yet reached any retain limits, so it will not be counted or pruned. Skipping.
0049.849 (0) Examining (for databases) backup set with group_id=0, nonce=bcb493fc5e38, datestamp=1609946596 (Jan 06 2021 15:23:16)
0049.849 (0) This backup set (1609946596) was an automatic backup, and we have not yet reached any retain limits, so it will not be counted or pruned. Skipping.
0049.849 (0) Examining (for databases) backup set with group_id=0, nonce=d70d5e37a7e6, datestamp=1609935737 (Jan 06 2021 12:22:17)
0049.849 (0) This backup set (1609935737) was an automatic backup, and we have not yet reached any retain limits, so it will not be counted or pruned. Skipping.
0049.849 (0) Examining (for databases) backup set with group_id=0, nonce=9c8b83b4deda, datestamp=1609934552 (Jan 06 2021 12:02:32)
0049.849 (0) This backup set (1609934552) was an automatic backup, and we have not yet reached any retain limits, so it will not be counted or pruned. Skipping.
0049.849 (0) Examining (for databases) backup set with group_id=0, nonce=56d8b72a96fc, datestamp=1606480257 (Nov 27 2020 12:30:57)
0049.849 (0) This backup set remains non-empty (f=1/d=1); will retain in history
0049.855 (0) Number of backup sets in history: 8; groups (files): 1
0049.860 (0) Examining (for files) backup set with nonce=1c594c7830d8, datestamp=1610002087 (Jan 07 2021 06:48:07)
0049.860 (0) This backup set is the backup set just made, so will not be deleted.
0049.866 (0) This backup set remains non-empty (f=1/d=1); will retain in history
0049.871 (0) Examining (for files) backup set with nonce=31b276f44501, datestamp=1609947027 (Jan 06 2021 15:30:27)
0049.871 (0) This backup set (1609947027) was an automatic backup, and we have not yet reached any retain limits, so it will not be counted or pruned. Skipping.
0049.871 (0) This backup set remains non-empty (f=1/d=1); will retain in history
0049.871 (0) Examining (for files) backup set with nonce=a6ec7027cdc9, datestamp=1609946982 (Jan 06 2021 15:29:42)
0049.871 (0) This backup set (1609946982) was an automatic backup, and we have not yet reached any retain limits, so it will not be counted or pruned. Skipping.
0049.871 (0) This backup set remains non-empty (f=1/d=1); will retain in history
0049.871 (0) Examining (for files) backup set with nonce=64383705ad1f, datestamp=1609946867 (Jan 06 2021 15:27:47)
0049.871 (0) This backup set (1609946867) was an automatic backup, and we have not yet reached any retain limits, so it will not be counted or pruned. Skipping.
0049.871 (0) This backup set remains non-empty (f=1/d=1); will retain in history
0049.872 (0) Examining (for files) backup set with nonce=bcb493fc5e38, datestamp=1609946596 (Jan 06 2021 15:23:16)
0049.872 (0) This backup set (1609946596) was an automatic backup, and we have not yet reached any retain limits, so it will not be counted or pruned. Skipping.
0049.872 (0) This backup set remains non-empty (f=1/d=1); will retain in history
0049.872 (0) Examining (for files) backup set with nonce=d70d5e37a7e6, datestamp=1609935737 (Jan 06 2021 12:22:17)
0049.872 (0) This backup set (1609935737) was an automatic backup, and we have not yet reached any retain limits, so it will not be counted or pruned. Skipping.
0049.872 (0) This backup set remains non-empty (f=1/d=1); will retain in history
0049.872 (0) Examining (for files) backup set with nonce=9c8b83b4deda, datestamp=1609934552 (Jan 06 2021 12:02:32)
0049.872 (0) This backup set (1609934552) was an automatic backup, and we have not yet reached any retain limits, so it will not be counted or pruned. Skipping.
0049.872 (0) This backup set remains non-empty (f=1/d=1); will retain in history
0049.872 (0) Examining (for files) backup set with nonce=56d8b72a96fc, datestamp=1606480257 (Nov 27 2020 12:30:57)
0049.872 (0) This backup set remains non-empty (f=1/d=1); will retain in history
0049.872 (0) Retain: saving new backup history (sets now: 8) and finishing retain operation
0049.890 (0) Resume backup (1c594c7830d8, 0): finish run
0049.906 (0) Decremented the semaphore (fd) by 1
0049.918 (0) Semaphore (fd) unlocked
0049.924 (0) There were no errors in the uploads, so the 'resume' event (1) is being unscheduled
0049.954 (0) No email will/can be sent - the user has not configured an email address.
0049.965 (0) The backup apparently succeeded and is now complete
